INDEX VERSION 1.131+C:\JavaProject\Cucumber\Desafio\.metadata\.plugins\org.eclipse.jdt.core
756360884.index
268665328.index
1312586118.index
595711154.index
2349671270.index
3075621779.index
413464935.index
756006386.index
162901212.index
1880094152.index
565899265.index
3188099249.index
3335383063.index
2546076573.index
347626912.index
4266428024.index
2825787128.index
2844256650.index
1929933281.index
2033839043.index
71525425.index
1921432459.index
3352902252.index
1624029723.index
826289949.index
136936140.index
1295027826.index
1721714348.index
2451833951.index
1833241494.index
2318053531.index
1670175895.index
2672315831.index
2936170451.index
